TP/TP2_compteur/TP_2_cmpteur/.Xil/Vivado-10740-LAPTOP-9066CLLC/hw_ila_data_1/zip_work/waveform.vcd
$date
        2026-Jul-06 11:32:31
$end
$version
        Vivado v2020.2 (64-bit)
$end
$timescale
        1ps
$end
$scope module dut $end
$var reg 19 " Din_reg [27:9] $end
$var reg 1 5 clk_IBUF $end
$var reg 1 6 end_counter_OBUF $end
$var reg 1 7 restart_IBUF $end
$var reg 1 8 _TRIGGER $end
$var reg 1 9 _WINDOW $end
$var reg 1 : _GAP $end
$upscope $end
$enddefinitions $end
#0
$dumpvars
b1000101001000000010 "
05
16
07
08
19
0:
$end
#439
b1000101001000000011 "
#951
b1000101001000000100 "
#1463
b1000101001000000101 "
#1975
b1000101001000000110 "
#2487
b1000101001000000111 "
#2999
b1000101001000001000 "
#3511
b1000101001000001001 "
#4023
b1000101001000001010 "
#4096
18
#4535
b1000101001000001011 "
#5047
b1000101001000001100 "
#5559
b1000101001000001101 "
#6071
b1000101001000001110 "
#6583
b1000101001000001111 "
#7095
b1000101001000010000 "
#7607
b1000101001000010001 "
#8119
b1000101001000010010 "
